<svg xmlns="http://www.w3.org/2000/svg" viewBox="478 209 26 26">
  <defs>
    <style>
      .cls-1 {
        fill: none;
        stroke: #fff;
        stroke-miterlimit: 10;
        stroke-width: 1.4px;
      }
    </style>
  </defs>
  <g id="Group_21" data-name="Group 21" transform="translate(478 209)">
    <line id="Line_7" data-name="Line 7" class="cls-1" y2="26" transform="translate(8.667)"/>
    <line id="Line_8" data-name="Line 8" class="cls-1" y2="26" transform="translate(17.333)"/>
    <line id="Line_9" data-name="Line 9" class="cls-1" x1="26" transform="translate(0 8.667)"/>
    <line id="Line_10" data-name="Line 10" class="cls-1" x1="26" transform="translate(0 17.333)"/>
  </g>
</svg>
