<svg xmlns="http://www.w3.org/2000/svg" viewBox="477.8 163.677 25.351 26.529">
  <defs>
    <style>
      .cls-1 {
        fill: none;
        stroke: #fff;
        stroke-miterlimit: 10;
        stroke-width: 1.4px;
      }
    </style>
  </defs>
  <path id="Path_16" data-name="Path 16" class="cls-1" d="M1,26.887V8.613L13.079,1.18,24.951,8.536V26.887" transform="translate(477.5 163.32)"/>
</svg>
